{
  "neuronID": "8564060abdbb7da3",
  "neuron": {
    "id": "8564060abdbb7da3",
    "name": "Defy",
    "layers": [
      {
        "id": 0,
        "name": "Base"
      },
      {
        "id": 1,
        "name": "L2"
      },
      {
        "id": 2,
        "name": "L3"
      },
      {
        "id": 3,
        "name": "L4"
      },
      {
        "id": 4,
        "name": "L5"
      },
      {
        "id": 5,
        "name": "L6"
      },
      {
        "id": 6,
        "name": "L7"
      },
      {
        "id": 7,
        "name": "L8"
      },
      {
        "id": 8,
        "name": "NO KEY"
      },
      {
        "id": 9,
        "name": "Experimental"
      }
    ],
    "macros": [
      {
        "actions": [
          {
            "type": 6,
            "keyCode": 227
          },
          {
            "type": 8,
            "keyCode": 44
          },
          {
            "type": 7,
            "keyCode": 227
          }
        ],
        "name": "Alfred",
        "macro": "LEFT ⌘ SPACE LEFT ⌘",
        "id": 0
      },
      {
        "actions": [
          {
            "keyCode": 227,
            "type": 6,
            "id": 0
          },
          {
            "keyCode": 43,
            "type": 8,
            "id": 1
          },
          {
            "keyCode": 10000,
            "type": 2,
            "id": 2
          }
        ],
        "name": "App  Switcher Test  1",
        "macro": "LEFT ⌘ 3 LEFT ⌘",
        "id": 1
      },
      {
        "actions": [
          {
            "type": 6,
            "keyCode": 227
          },
          {
            "type": 8,
            "keyCode": 43
          },
          {
            "type": 7,
            "keyCode": 227
          }
        ],
        "name": "App Switcher Test 2",
        "macro": "LEFT ⌘ TAB LEFT ⌘",
        "id": 2
      }
    ],
    "superkeys": [
      {
        "actions": [
          0,
          0,
          225,
          57,
          0
        ],
        "name": "ShiftCaps",
        "id": 0
      }
    ],
    "device": {
      "info": {
        "vendor": "Dygma",
        "product": "Defy",
        "keyboardType": "wireless",
        "displayName": "Dygma Defy wireless",
        "urls": [
          {
            "name": "Homepage",
            "url": "https://www.dygma.com/defy/"
          }
        ]
      },
      "usb": {
        "vendorId": 13807,
        "productId": 18
      },
      "keyboard": {
        "rows": 5,
        "columns": 16
      },
      "keyboardUnderglow": {
        "rows": 2,
        "columns": 89
      },
      "RGBWMode": true,
      "components": {},
      "instructions": {
        "en": {
          "updateInstructions": "To update the firmware, the keyboard needs a special reset. When the countdown starts, press and hold the Escape key. Soon after the countdown finished, the Neuron's light should start a blue pulsing pattern, and the flashing will proceed. At this point, you should release the Escape key."
        }
      }
    }
  },
  "versions": {
    "bazecor": "v1.2.5-beta"
  },
  "backup": [
    {
      "command": "keymap.custom",
      "data": "65535 0 0 0 0 0 0 65535 65535 0 0 0 0 0 0 0 0 20 26 9 19 10 0 65535 65535 0 13 15 24 28 51 0 0 4 21 22 23 7 0 65535 65535 0 11 17 8 12 18 0 17501 29 27 6 25 5 65535 65535 65535 65535 14 16 54 55 56 0 0 0 53980 0 227 226 224 0 0 76 42 0 0 44 0 40 65535 0 0 0 0 0 0 65535 65535 0 0 0 0 0 0 0 0 0 0 0 0 0 0 65535 65535 0 0 0 0 0 0 0 0 0 0 0 0 0 0 65535 65535 0 0 0 0 0 0 0 0 0 0 0 0 0 65535 65535 65535 65535 0 0 0 0 0 0 0 0 0 0 0 0 0 0 0 0 0 0 0 0 0 0 65535 0 0 0 0 0 0 65535 65535 0 0 0 0 0 0 0 0 0 0 0 0 0 0 65535 65535 0 0 0 0 0 0 0 0 0 0 0 0 0 0 65535 65535 0 0 0 0 0 0 0 0 0 0 0 0 0 65535 65535 65535 65535 0 0 0 0 0 0 0 0 0 0 0 0 0 0 0 0 0 0 0 0 0 0 65535 0 0 0 0 0 0 65535 65535 0 0 0 0 0 0 0 0 0 0 0 0 0 0 65535 65535 0 0 0 0 0 0 0 0 0 0 0 0 0 0 65535 65535 0 0 0 0 0 0 0 0 0 0 0 0 0 65535 65535 65535 65535 0 0 0 0 0 0 0 0 0 0 0 0 0 0 0 0 0 0 0 0 0 0 65535 0 0 0 0 0 0 65535 65535 0 0 0 0 0 0 0 0 0 0 0 0 0 0 65535 65535 0 0 0 0 0 0 0 0 0 0 0 0 0 0 65535 65535 0 0 0 0 0 0 0 0 0 0 0 0 0 65535 65535 65535 65535 0 0 0 0 0 0 0 0 0 0 0 0 0 0 0 0 0 0 0 0 0 0 65535 0 0 0 0 0 0 65535 65535 0 0 0 0 0 0 0 0 0 0 0 0 0 0 65535 65535 0 0 0 0 0 0 0 0 0 0 0 0 0 0 65535 65535 0 0 0 0 0 0 0 0 0 0 0 0 0 65535 65535 65535 65535 0 0 0 0 0 0 0 0 0 0 0 0 0 0 0 0 0 0 0 0 0 0 65535 0 0 0 0 0 0 65535 65535 0 0 0 0 0 0 0 0 20 26 9 19 10 0 65535 65535 0 13 15 24 28 51 0 0 4 21 22 23 7 0 65535 65535 0 11 17 8 12 18 0 0 29 27 6 25 5 65535 65535 65535 65535 14 16 54 55 56 0 0 0 0 0 0 0 0 0 0 0 0 0 0 0 0 0 65535 0 0 0 0 0 0 65535 65535 0 0 0 0 0 0 0 0 0 0 0 0 0 0 65535 65535 0 0 0 0 0 0 0 0 0 0 0 0 0 0 65535 65535 0 0 0 0 0 0 0 0 0 0 0 0 0 65535 65535 65535 65535 0 0 0 0 0 0 0 0 0 0 0 0 0 0 0 0 0 0 0 0 0 0 65535 0 0 0 0 0 0 65535 65535 0 0 0 0 0 0 0 0 0 0 0 0 0 0 65535 65535 0 0 0 0 0 0 0 0 0 0 0 0 0 0 65535 65535 0 0 0 0 0 0 0 0 0 0 0 0 0 65535 65535 65535 65535 0 0 0 0 0 0 0 0 0 0 0 0 0 0 0 0 0 0 0 0 0 0 65535 30 31 32 33 34 0 65535 65535 0 35 36 37 38 39 45 0 20 26 8 21 23 0 65535 65535 0 28 24 12 18 19 46 0 4 22 7 9 10 0 65535 65535 0 11 13 14 15 51 0 17492 29 27 6 25 5 65535 65535 65535 65535 17 16 54 55 56 0 0 0 0 49469 0 0 0 0 0 0 0 40 49469 0 0 0"
    },
    {
      "command": "keymap.onlyCustom",
      "data": "1"
    },
    {
      "command": "settings.defaultLayer",
      "data": "0"
    },
    {
      "command": "superkeys.map",
      "data": "1 1 225 57 1 0 0 17450 1 1 1 0 17492 17451 17454 17493 1 0 17492 17452 17451 17494 1 0 2086 2086 2087 2087 1 0 47 1 1 48 1 0 2095 2095 2096 2096 1 0 1 1 1 1 1 0 1 17451 17452 1 1 0 0 1 1 48 1 0 17152 17154 1 17153 1 0 1 225 1 57 1 0 0 65535 65535 65535 65535 65535 65535 65535 65535 65535 65535 65535 65535 65535 65535 65535 65535 65535 65535 65535 65535 65535 65535 65535 65535 65535 65535 65535 65535 65535 65535 65535 65535 65535 65535 65535 65535 65535 65535 65535 65535 65535 65535 65535 65535 65535 65535 65535 65535 65535 65535 65535 65535 65535 65535 65535 65535 65535 65535 65535 65535 65535 65535 65535 65535 65535 65535 65535 65535 65535 65535 65535 65535 65535 65535 65535 65535 65535 65535 65535 65535 65535 65535 65535 65535 65535 65535 65535 65535 65535 65535 65535 65535 65535 65535 65535 65535 65535 65535 65535 65535 65535 65535 65535 65535 65535 65535 65535 65535 65535 65535 65535 65535 65535 65535 65535 65535 65535 65535 65535 65535 65535 65535 65535 65535 65535 65535 65535 65535 65535 65535 65535 65535 65535 65535 65535 65535 65535 65535 65535 65535 65535 65535 65535 65535 65535 65535 65535 65535 65535 65535 65535 65535 65535 65535 65535 65535 65535 65535 65535 65535 65535 65535 65535 65535 65535 65535 65535 65535 65535 65535 65535 65535 65535 65535 65535 65535 65535 65535 65535 65535 65535 65535 65535 65535 65535 65535 65535 65535 65535 65535 65535 65535 65535 65535 65535 65535 65535 65535 65535 65535 65535 65535 65535 65535 65535 65535 65535 65535 65535 65535 65535 65535 65535 65535 65535 65535 65535 65535 65535 65535 65535 65535 65535 65535 65535 65535 65535 65535 65535 65535 65535 65535 65535 65535 65535 65535 65535 65535 65535 65535 65535 65535 65535 65535 65535 65535 65535 65535 65535 65535 65535 65535 65535 65535 65535 65535 65535 65535 65535 65535 65535 65535 65535 65535 65535 65535 65535 65535 65535 65535 65535 65535 65535 65535 65535 65535 65535 65535 65535 65535 65535 65535 65535 65535 65535 65535 65535 65535 65535 65535 65535 65535 65535 65535 65535 65535 65535 65535 65535 65535 65535 65535 65535 65535 65535 65535 65535 65535 65535 65535 65535 65535 65535 65535 65535 65535 65535 65535 65535 65535 65535 65535 65535 65535 65535 65535 65535 65535 65535 65535 65535 65535 65535 65535 65535 65535 65535 65535 65535 65535 65535 65535 65535 65535 65535 65535 65535 65535 65535 65535 65535 65535 65535 65535 65535 65535 65535 65535 65535 65535 65535 65535 65535 65535 65535 65535 65535 65535 65535 65535 65535 65535 65535 65535 65535 65535 65535 65535 65535 65535 65535 65535 65535 65535 65535 65535 65535 65535 65535 65535 65535 65535 65535 65535 65535 65535 65535 65535 65535 65535 65535 65535 65535 65535 65535 65535 65535 65535 65535 65535 65535 65535 65535 65535 65535 65535 65535 65535 65535 65535 65535 65535 65535 65535 65535 65535 65535 65535 65535 65535 65535 65535 65535 65535 65535 65535 65535 65535 65535"
    },
    {
      "command": "superkeys.waitfor",
      "data": "500"
    },
    {
      "command": "superkeys.timeout",
      "data": "250"
    },
    {
      "command": "superkeys.repeat",
      "data": "20"
    },
    {
      "command": "superkeys.holdstart",
      "data": "132"
    },
    {
      "command": "superkeys.overlap",
      "data": "50"
    },
    {
      "command": "led.brightness",
      "data": "127"
    },
    {
      "command": "led.brightnessUG",
      "data": "63"
    },
    {
      "command": "led.brightness.wireless",
      "data": "255"
    },
    {
      "command": "led.brightnessUG.wireless",
      "data": "127"
    },
    {
      "command": "led.fade",
      "data": "1"
    },
    {
      "command": "palette",
      "data": "0 255 0 0 210 131 0 35 0 0 0 0 255 0 0 0 0 0 0 0 0 0 255 0 0 0 0 0 255 128 0 0 0 0 0 0 0 0 0 255 220 203 0 28 0 0 0 0 255 0 255 0 0 0 0 0 0 0 0 0 0 0 0 0"
    },
    {
      "command": "colormap.map",
      "data": "3 15 15 15 15 15 13 15 0 0 0 0 0 15 13 0 0 0 7 0 15 3 0 0 0 0 0 13 15 0 13 0 0 0 13 15 15 15 15 15 15 15 15 0 0 0 0 0 15 15 0 0 0 7 0 15 13 0 0 0 0 0 0 15 0 13 13 0 0 13 15 15 15 15 15 13 0 0 0 15 15 15 15 15 15 15 15 15 15 15 15 15 15 15 15 15 15 15 15 15 15 15 15 15 15 15 15 15 15 15 15 15 15 15 15 15 15 15 13 13 15 15 15 15 15 15 15 15 13 0 0 0 15 15 15 15 15 15 15 15 15 15 15 15 15 15 15 15 15 15 15 15 15 15 15 15 15 15 15 15 15 15 15 15 15 15 15 15 15 15 15 13 13 15 15 15 0 15 3 15 15 15 15 15 13 15 15 15 15 15 15 15 13 15 15 15 13 15 15 15 15 15 15 15 15 13 15 13 13 13 13 13 13 15 15 15 15 15 15 15 15 15 15 15 15 15 15 15 15 15 15 13 15 15 13 15 15 15 15 15 13 15 13 13 13 13 13 13 15 15 15 15 15 15 15 15 15 15 15 15 15 15 15 15 15 15 15 15 15 15 15 15 15 15 15 15 15 15 15 15 15 15 15 15 15 15 15 15 15 15 15 15 15 15 15 15 15 15 15 15 15 15 15 15 15 15 15 15 15 15 15 15 15 15 15 15 15 15 15 15 15 15 15 15 15 15 15 15 15 15 15 15 15 15 15 15 15 15 15 15 15 15 15 15 15 15 15 15 15 15 15 15 15 15 15 15 3 15 15 15 15 15 13 15 15 15 15 15 15 15 13 15 15 15 13 15 15 15 15 15 15 15 15 13 15 13 13 13 13 13 13 15 15 15 15 15 15 15 15 15 15 15 15 15 15 15 15 15 15 13 15 15 13 15 15 15 15 15 13 15 13 13 13 13 13 13 15 15 15 15 15 15 15 15 15 15 15 15 15 15 15 15 15 15 15 15 15 15 15 15 15 15 15 15 15 15 15 15 15 15 15 15 15 15 15 15 15 15 15 15 15 15 15 15 15 15 15 15 15 15 15 15 15 15 15 15 15 15 15 15 15 15 15 15 15 15 15 15 15 15 15 15 15 15 15 15 15 15 15 15 15 15 15 15 15 15 15 15 15 15 15 15 15 15 15 15 15 15 15 15 15 15 15 15 3 15 15 15 15 15 13 15 15 15 15 15 15 15 13 15 15 15 13 15 15 15 15 15 15 15 15 13 15 13 13 13 13 13 13 15 15 15 15 15 15 15 15 15 15 15 15 15 15 15 15 15 15 13 15 15 13 15 15 15 15 15 13 15 13 13 13 13 13 13 15 15 15 15 15 15 15 15 15 15 15 15 15 15 15 15 15 15 15 15 15 15 15 15 15 15 15 15 15 15 15 15 15 15 15 15 15 15 15 15 15 15 15 15 15 15 15 15 15 15 15 15 15 15 15 15 15 15 15 15 15 15 15 15 15 15 15 15 15 15 15 15 15 15 15 15 15 15 15 15 15 15 15 15 15 15 15 15 15 15 15 15 15 15 15 15 15 15 15 15 15 15 15 15 15 15 15 15 3 15 15 15 15 15 13 15 15 15 15 15 15 15 13 15 15 15 13 15 15 15 15 15 15 15 15 13 15 13 13 13 13 13 13 15 15 15 15 15 15 15 15 15 15 15 15 15 15 15 15 15 15 13 15 15 13 15 15 15 15 15 13 15 13 13 13 13 13 13 15 15 15 15 15 15 15 15 15 15 15 15 15 15 15 15 15 15 15 15 15 15 15 15 15 15 15 15 15 15 15 15 15 15 15 15 15 15 15 15 15 15 15 15 15 15 15 15 15 15 15 15 15 15 15 15 15 15 15 15 15 15 15 15 15 15 15 15 15 15 15 15 15 15 15 15 15 15 15 15 15 15 15 15 15 15 15 15 15 15 15 15 15 15 15 15 15 15 15 15 15 15 15 15 15 15 15 15 3 15 15 15 15 15 13 15 15 15 15 15 15 15 13 15 15 15 13 15 15 15 15 15 15 15 15 13 15 13 13 13 13 13 13 15 15 15 15 15 15 15 15 15 15 15 15 15 15 15 15 15 15 13 15 15 13 15 15 15 15 15 13 15 13 13 13 13 13 13 15 15 15 15 15 15 15 15 15 15 15 15 15 15 15 15 15 15 15 15 15 15 15 15 15 15 15 15 15 15 15 15 15 15 15 15 15 15 15 15 15 15 15 15 15 15 15 15 15 15 15 15 15 15 15 15 15 15 15 15 15 15 15 15 15 15 15 15 15 15 15 15 15 15 15 15 15 15 15 15 15 15 15 15 15 15 15 15 15 15 15 15 15 15 15 15 15 15 15 15 15 15 15 15 15 15 15 15 3 15 15 15 15 15 13 15 0 0 0 0 0 15 13 0 0 0 0 0 15 15 0 0 0 0 0 13 15 13 13 13 13 13 13 15 15 15 15 15 15 15 15 0 0 0 0 0 15 15 0 0 0 0 0 15 13 0 0 0 0 0 13 15 13 13 13 13 13 13 15 15 15 15 15 13 0 0 0 15 15 15 15 15 15 15 15 15 15 15 15 15 15 15 15 15 15 15 15 15 15 15 15 15 15 15 15 15 15 15 15 15 15 15 15 15 15 15 13 13 15 15 15 15 15 15 15 15 13 0 0 0 15 15 15 15 15 15 15 15 15 15 15 15 15 15 15 15 15 15 15 15 15 15 15 15 15 15 15 15 15 15 15 15 15 15 15 15 15 15 15 13 13 15 15 15 0 15 3 15 15 15 15 15 13 15 15 15 15 15 15 15 13 15 15 15 13 15 15 15 15 15 15 15 15 13 15 13 13 13 13 13 13 15 15 15 15 15 15 15 15 15 15 15 15 15 15 15 15 15 15 13 15 15 13 15 15 15 15 15 13 15 13 13 13 13 13 13 15 15 15 15 15 15 15 15 15 15 15 15 15 15 15 15 15 15 15 15 15 15 15 15 15 15 15 15 15 15 15 15 15 15 15 15 15 15 15 15 15 15 15 15 15 15 15 15 15 15 15 15 15 15 15 15 15 15 15 15 15 15 15 15 15 15 15 15 15 15 15 15 15 15 15 15 15 15 15 15 15 15 15 15 15 15 15 15 15 15 15 15 15 15 15 15 15 15 15 15 15 15 15 15 15 15 15 15 3 15 15 15 15 15 13 15 15 15 15 15 15 15 13 15 15 15 13 15 15 15 15 15 15 15 15 13 15 13 13 13 13 13 13 15 15 15 15 15 15 15 15 15 15 15 15 15 15 15 15 15 15 13 15 15 13 15 15 15 15 15 13 15 13 13 13 13 13 13 15 15 15 15 15 15 15 15 15 15 15 15 15 15 15 15 15 15 15 15 15 15 15 15 15 15 15 15 15 15 15 15 15 15 15 15 15 15 15 15 15 15 15 15 15 15 15 15 15 15 15 15 15 15 15 15 15 15 15 15 15 15 15 15 15 15 15 15 15 15 15 15 15 15 15 15 15 15 15 15 15 15 15 15 15 15 15 15 15 15 15 15 15 15 15 15 15 15 15 15 15 15 15 15 15 15 15 15 3 10 10 10 10 10 10 10 10 10 10 10 10 10 10 10 10 10 10 10 10 3 10 10 10 10 10 10 10 10 10 10 10 10 10 10 10 10 10 10 10 10 10 10 10 10 10 10 10 10 10 10 10 10 10 10 10 10 10 10 10 10 10 10 10 10 10 10 10 10 10 10 10 10 10 10 10 10 10 10 10 10 10 10 10 10 10 10 10 10 10 10 10 10 10 10 10 10 10 10 10 10 10 10 10 10 10 10 10 10 10 10 10 10 10 10 10 10 10 10 10 10 10 10 10 10 10 10 10 10 10 10 10 10 10 10 10 10 10 10 10 10 10 10 10 10 10 10 10 10 10 10 10 10 10 10 10 10 10 10 10 10 10 10 10 10 10 10 10 10 10 10 10 10 10 10 10 15"
    },
    {
      "command": "idleleds.true_sleep",
      "data": "1"
    },
    {
      "command": "idleleds.true_sleep_time",
      "data": "3600"
    },
    {
      "command": "idleleds.time_limit",
      "data": "600"
    },
    {
      "command": "idleleds.wireless",
      "data": "1200"
    },
    {
      "command": "macros.map",
      "data": "6 227 8 44 7 227 0 6 227 6 226 8 30 0 6 227 6 226 8 31 0 6 227 6 226 8 32 0 0 255 255 255 255 255 255 255 255 255 255 255 255 255 255 255 255 255 255 255 255 255 255 255 255 255 255 255 255 255 255 255 255 255 255 255 255 255 255 255 255 255 255 255 255 255 255 255 255 255 255 255 255 255 255 255 255 255 255 255 255 255 255 255 255 255 255 255 255 255 255 255 255 255 255 255 255 255 255 255 255 255 255 255 255 255 255 255 255 255 255 255 255 255 255 255 255 255 255 255 255 255 255 255 255 255 255 255 255 255 255 255 255 255 255 255 255 255 255 255 255 255 255 255 255 255 255 255 255 255 255 255 255 255 255 255 255 255 255 255 255 255 255 255 255 255 255 255 255 255 255 255 255 255 255 255 255 255 255 255 255 255 255 255 255 255 255 255 255 255 255 255 255 255 255 255 255 255 255 255 255 255 255 255 255 255 255 255 255 255 255 255 255 255 255 255 255 255 255 255 255 255 255 255 255 255 255 255 255 255 255 255 255 255 255 255 255 255 255 255 255 255 255 255 255 255 255 255 255 255 255 255 255 255 255 255 255 255 255 255 255 255 255 255 255 255 255 255 255 255 255 255 255 255 255 255 255 255 255 255 255 255 255 255 255 255 255 255 255 255 255 255 255 255 255 255 255 255 255 255 255 255 255 255 255 255 255 255 255 255 255 255 255 255 255 255 255 255 255 255 255 255 255 255 255 255 255 255 255 255 255 255 255 255 255 255 255 255 255 255 255 255 255 255 255 255 255 255 255 255 255 255 255 255 255 255 255 255 255 255 255 255 255 255 255 255 255 255 255 255 255 255 255 255 255 255 255 255 255 255 255 255 255 255 255 255 255 255 255 255 255 255 255 255 255 255 255 255 255 255 255 255 255 255 255 255 255 255 255 255 255 255 255 255 255 255 255 255 255 255 255 255 255 255 255 255 255 255 255 255 255 255 255 255 255 255 255 255 255 255 255 255 255 255 255 255 255 255 255 255 255 255 255 255 255 255 255 255 255 255 255 255 255 255 255 255 255 255 255 255 255 255 255 255 255 255 255 255 255 255 255 255 255 255 255 255 255 255 255 255 255 255 255 255 255 255 255 255 255 255 255 255 255 255 255 255 255 255 255 255 255 255 255 255 255 255 255 255 255 255 255 255 255 255 255 255 255 255 255 255 255 255 255 255 255 255 255 255 255 255 255 255 255 255 255 255 255 255 255 255 255 255 255 255 255 255 255 255 255 255 255 255 255 255 255 255 255 255 255 255 255 255 255 255 255 255 255 255 255 255 255 255 255 255 255 255 255 255 255 255 255 255 255 255 255 255 255 255 255 255 255 255 255 255 255 255 255 255 255 255 255 255 255 255 255 255 255 255 255 255 255 255 255 255 255 255 255 255 255 255 255 255 255 255 255 255 255 255 255 255 255 255 255 255 255 255 255 255 255 255 255 255 255 255 255 255 255 255 255 255 255 255 255 255 255 255 255 255 255 255 255 255 255 255 255 255 255 255 255 255 255 255 255 255 255 255 255 255 255 255 255 255 255 255 255 255 255 255 255 255 255 255 255 255 255 255 255 255 255 255 255 255 255 255 255 255 255 255 255 255 255 255 255 255 255 255 255 255 255 255 255 255 255 255 255 255 255 255 255 255 255 255 255 255 255 255 255 255 255 255 255 255 255 255 255 255 255 255 255 255 255 255 255 255 255 255 255 255 255 255 255 255 255 255 255 255 255 255 255 255 255 255 255 255 255 255 255 255 255 255 255 255 255 255 255 255 255 255 255 255 255 255 255 255 255 255 255 255 255 255 255 255 255 255 255 255 255 255 255 255 255 255 255 255 255 255 255 255 255 255 255 255 255 255 255 255 255 255 255 255 255 255 255 255 255 255 255 255 255 255 255 255 255 255 255 255 255 255 255 255 255 255 255 255 255 255 255 255 255 255 255 255 255 255 255 255 255 255 255 255 255 255 255 255 255 255 255 255 255 255 255 255 255 255 255 255 255 255 255 255 255 255 255 255 255 255 255 255 255 255 255 255 255 255 255 255 255 255 255 255 255 255 255 255 255 255 255 255 255 255 255 255 255 255 255 255 255 255 255 255 255 255 255 255 255 255 255 255 255 255 255 255 255 255 255 255 255 255 255 255 255 255 255 255 255 255 255 255 255 255 255 255 255 255 255 255 255 255 255 255 255 255 255 255 255 255 255 255 255 255 255 255 255 255 255 255 255 255 255 255 255 255 255 255 255 255 255 255 255 255 255 255 255 255 255 255 255 255 255 255 255 255 255 255 255 255 255 255 255 255 255 255 255 255 255 255 255 255 255 255 255 255 255 255 255 255 255 255 255 255 255 255 255 255 255 255 255 255 255 255 255 255 255 255 255 255 255 255 255 255 255 255 255 255 255 255 255 255 255 255 255 255 255 255 255 255 255 255 255 255 255 255 255 255 255 255 255 255 255 255 255 255 255 255 255 255 255 255 255 255 255 255 255 255 255 255 255 255 255 255 255 255 255 255 255 255 255 255 255 255 255 255 255 255 255 255 255 255 255 255 255 255 255 255 255 255 255 255 255 255 255 255 255 255 255 255 255 255 255 255 255 255 255 255 255 255 255 255 255 255 255 255 255 255 255 255 255 255 255 255 255 255 255 255 255 255 255 255 255 255 255 255 255 255 255 255 255 255 255 255 255 255 255 255 255 255 255 255 255 255 255 255 255 255 255 255 255 255 255 255 255 255 255 255 255 255 255 255 255 255 255 255 255 255 255 255 255 255 255 255 255 255 255 255 255 255 255 255 255 255 255 255 255 255 255 255 255 255 255 255 255 255 255 255 255 255 255 255 255 255 255 255 255 255 255 255 255 255 255 255 255 255 255 255 255 255 255 255 255 255 255 255 255 255 255 255 255 255 255 255 255 255 255 255 255 255 255 255 255 255 255 255 255 255 255 255 255 255 255 255 255 255 255 255 255 255 255 255 255 255 255 255 255 255 255 255 255 255 255 255 255 255 255 255 255 255 255 255 255 255 255 255 255 255 255 255 255 255 255 255 255 255 255 255 255 255 255 255 255 255 255 255 255 255 255 255 255 255 255 255 255 255 255 255 255 255 255 255 255 255 255 255 255 255 255 255 255 255 255 255 255 255 255 255 255 255 255 255 255 255 255 255 255 255 255 255 255 255 255 255 255 255 255 255 255 255 255 255 255 255 255 255 255 255 255 255 255 255 255 255 255 255 255 255 255 255 255 255 255 255 255 255 255 255 255 255 255 255 255 255 255 255 255 255 255 255 255 255 255 255 255 255 255 255 255 255 255 255 255 255 255 255 255 255 255 255 255 255 255 255 255 255 255 255 255 255 255 255 255 255 255 255 255 255 255 255 255 255 255 255 255 255 255 255 255 255 255 255 255 255 255 255 255 255 255 255 255 255 255 255 255 255 255 255 255 255 255 255 255 255 255 255 255 255 255 255 255 255 255 255 255 255 255 255 255 255 255 255 255 255 255 255 255 255 255 255 255 255 255 255 255 255 255 255 255 255 255 255 255 255 255 255 255 255 255 255 255 255 255 255 255 255 255 255 255 255 255 255 255 255 255 255 255 255 255 255 255 255 255 255 255 255 255 255 255 255 255 255 255 255 255 255 255 255 255 255 255 255 255 255 255 255 255 255 255 255 255 255 255 255 255 255 255 255 255 255 255 255 255 255 255 255 255 255 255 255 255 255 255 255 255 255 255 255 255 255 255 255 255 255 255 255 255 255 255 255 255 255 255 255 255 255 255 255 255 255 255 255 255 255 255 255 255 255 255 255 255 255 255 255 255 255 255 255 255 255 255 255 255 255 255 255 255 255 255 255 255 255 255 255 255 255 255 255 255 255 255 255 255 255 255 255 255 255 255 255 255 255 255 255 255 255 255 255 255 255 255 255 255 255 255 255 255 255 255 255 255 255 255 255 255 255 255 255 255 255 255 255 255 255 255 255 255 255 255 255 255 255 255 255 255 255 255 255 255 255 255 255 255 255 255 255 255 255 255 255 255 255 255 255 255 255 255 255 255 255 255 255 255 255 255 255 255 255 255 255 255 255 255 255 255 255 255 255 255 255 255 255 255 255 255 255 255 255 255 255 255 255 255 255 255 255 255 255 255 255 255 255 255 255 255 255 255 255 255 255 255 255 255 255 255 255 255 255 255 255 255 255 255 255 255 255 255 255 255 255 255 255 255 255 255 255 255 255 255 255 255 255 255 255 255 255 255 255 255 255 255 255 255 255 255 255 255 255 255 255 255 255 255 255 255 255 255 255 255 255 255 255 255 255 255 255 255 255 255 255 255 255 255 255 255 255 255 255 255 255 255 255 255 255 255 255 255 255 255 255 255 255 255 255 255 255 255 255 255 255 255 255 255 255 255 255 255 255 255 255 255 255 255 255 255 255 255 255 255 255 255 255 255 255 255 255 255 255 255 255 255 255 255 255 255 255 255 255 255 255 255 255 255 255 255 255 255 255 255 255 255 255 255 255 255 255 255 255 255 255 255 255 255 255 255 255 255 255 255 255 255 255 255 255 255 255 255 255 255 255 255 255 255 255"
    },
    {
      "command": "macros.memory",
      "data": "2048"
    },
    {
      "command": "mouse.speed",
      "data": "1"
    },
    {
      "command": "mouse.speedDelay",
      "data": "2"
    },
    {
      "command": "mouse.accelSpeed",
      "data": "1"
    },
    {
      "command": "mouse.accelDelay",
      "data": "2"
    },
    {
      "command": "mouse.wheelSpeed",
      "data": "1"
    },
    {
      "command": "mouse.wheelDelay",
      "data": "100"
    },
    {
      "command": "mouse.speedLimit",
      "data": "127"
    },
    {
      "command": "wireless.battery.left.level",
      "data": "73"
    },
    {
      "command": "wireless.battery.right.level",
      "data": "59"
    },
    {
      "command": "wireless.battery.left.status",
      "data": "0"
    },
    {
      "command": "wireless.battery.right.status",
      "data": "0"
    },
    {
      "command": "wireless.battery.savingMode",
      "data": "0"
    },
    {
      "command": "wireless.rf.power",
      "data": "0"
    },
    {
      "command": "wireless.rf.channelHop",
      "data": "0"
    },
    {
      "command": "wireless.rf.syncPairing",
      "data": ""
    }
  ]
}