{
  "neuronID": "8564060abdbb7da3",
  "neuron": {
    "id": "8564060abdbb7da3",
    "name": "Defy",
    "layers": [
      {
        "id": 0,
        "name": "Base"
      },
      {
        "id": 1,
        "name": "Numbers"
      },
      {
        "id": 2,
        "name": "Symbols"
      },
      {
        "id": 3,
        "name": "L4"
      },
      {
        "id": 4,
        "name": "Windows"
      },
      {
        "id": 5,
        "name": "L6"
      },
      {
        "id": 6,
        "name": "L7"
      },
      {
        "id": 7,
        "name": "Colemak-DH Backup"
      },
      {
        "id": 8,
        "name": "NO KEY"
      },
      {
        "id": 9,
        "name": "Experimental"
      }
    ],
    "macros": [
      {
        "actions": [
          {
            "type": 6,
            "keyCode": 227
          },
          {
            "type": 8,
            "keyCode": 44
          },
          {
            "type": 7,
            "keyCode": 227
          }
        ],
        "name": "Alfred",
        "macro": "LEFT ⌘ SPACE LEFT ⌘",
        "id": 0
      },
      {
        "actions": [
          {
            "keyCode": 227,
            "type": 6,
            "id": 0
          },
          {
            "keyCode": 43,
            "type": 8,
            "id": 1
          },
          {
            "keyCode": 10000,
            "type": 2,
            "id": 2
          }
        ],
        "name": "App  Switcher Test  1",
        "macro": "LEFT ⌘ 3 LEFT ⌘",
        "id": 1
      },
      {
        "actions": [
          {
            "type": 6,
            "keyCode": 227
          },
          {
            "type": 8,
            "keyCode": 43
          },
          {
            "type": 7,
            "keyCode": 227
          }
        ],
        "name": "App Switcher Test 2",
        "macro": "LEFT ⌘ TAB LEFT ⌘",
        "id": 2
      }
    ],
    "superkeys": [
      {
        "actions": [
          17492,
          1,
          1,
          17492,
          1
        ],
        "name": "toBase",
        "id": 0
      },
      {
        "actions": [
          1,
          17451,
          17452,
          17493,
          17453
        ],
        "name": "L2_L3",
        "id": 1
      },
      {
        "actions": [
          1,
          17453,
          17454,
          1,
          1
        ],
        "name": "L4_L5",
        "id": 2
      },
      {
        "actions": [
          2086,
          1,
          1,
          2087,
          1
        ],
        "name": "( )",
        "id": 3
      },
      {
        "actions": [
          47,
          1,
          1,
          48,
          1
        ],
        "name": "[ ]",
        "id": 4
      }
    ],
    "device": {
      "info": {
        "vendor": "Dygma",
        "product": "Defy",
        "keyboardType": "wireless",
        "displayName": "Dygma Defy wireless",
        "urls": [
          {
            "name": "Homepage",
            "url": "https://www.dygma.com/defy/"
          }
        ]
      },
      "usb": {
        "vendorId": 13807,
        "productId": 18
      },
      "keyboard": {
        "rows": 5,
        "columns": 16
      },
      "keyboardUnderglow": {
        "rows": 2,
        "columns": 89
      },
      "RGBWMode": true,
      "components": {},
      "instructions": {
        "en": {
          "updateInstructions": "To update the firmware, the keyboard needs a special reset. When the countdown starts, press and hold the Escape key. Soon after the countdown finished, the Neuron's light should start a blue pulsing pattern, and the flashing will proceed. At this point, you should release the Escape key."
        }
      }
    }
  },
  "versions": {
    "bazecor": "v1.2.5-beta"
  },
  "backup": [
    {
      "command": "keymap.custom",
      "data": "65535 57 0 0 0 0 0 65535 65535 53983 0 0 0 0 0 0 53 20 26 8 21 23 0 65535 65535 53984 28 24 12 18 19 0 43 4 22 7 9 10 49 65535 65535 45 11 13 14 15 51 52 17501 29 27 6 25 5 65535 65535 65535 65535 17 16 54 55 56 54108 53981 0 227 49469 0 226 224 53982 0 76 0 40 49469 231 42 40 65535 58 59 60 61 62 63 65535 65535 64 65 66 67 68 69 0 0 0 0 0 0 0 0 65535 65535 0 95 96 97 84 86 0 0 0 0 0 0 0 0 65535 65535 0 92 93 94 85 87 0 0 0 0 0 0 0 65535 65535 65535 65535 89 90 91 99 0 0 53980 0 0 0 0 0 0 0 0 65535 0 88 0 98 65535 0 65535 0 0 0 0 0 0 65535 65535 0 0 0 0 0 0 0 0 0 0 0 0 0 0 65535 65535 0 2084 2085 2086 0 0 0 0 0 0 0 0 0 0 65535 65535 0 2081 2082 2083 0 0 0 0 0 0 0 0 0 65535 65535 65535 65535 2078 2079 2080 0 0 0 53980 0 0 0 0 0 0 0 0 65535 0 65535 0 2087 65535 0 65535 0 0 0 0 0 0 65535 65535 0 0 0 4178 0 0 0 0 0 0 0 0 0 0 65535 65535 0 0 592 82 591 0 0 0 0 0 0 0 0 0 65535 65535 0 0 80 81 79 0 0 0 0 0 0 0 0 65535 65535 65535 65535 0 4176 4177 4175 0 0 53980 0 0 0 0 0 0 0 0 0 0 65535 65535 0 0 0 65535 0 0 0 0 0 0 65535 65535 0 0 0 0 0 0 0 0 0 0 0 0 0 0 65535 65535 0 0 4444 4445 4446 0 0 0 0 0 0 0 0 0 65535 65535 0 336 4432 4434 4431 335 0 0 0 0 0 0 0 65535 65535 65535 65535 0 0 0 0 0 54109 0 0 0 0 0 0 0 0 0 0 0 0 0 0 0 0 65535 0 0 0 0 0 0 65535 65535 0 0 0 0 0 0 0 0 0 0 0 0 0 0 65535 65535 0 0 0 0 0 0 0 0 0 0 0 0 0 0 65535 65535 0 0 0 0 0 0 0 0 0 0 0 0 0 65535 65535 65535 65535 0 0 0 0 0 0 0 0 0 0 0 0 0 0 0 0 0 0 0 0 0 0 65535 0 0 0 0 0 0 65535 65535 0 0 0 0 0 0 0 0 20 26 9 19 10 0 65535 65535 0 13 15 24 28 51 0 0 4 21 22 23 7 0 65535 65535 0 11 17 8 12 18 0 0 29 27 6 25 5 65535 65535 65535 65535 14 16 54 55 56 0 0 0 0 0 0 0 0 0 0 0 0 0 0 0 0 0 65535 57 0 0 0 0 0 65535 65535 53983 0 0 0 0 0 0 53 20 26 9 19 5 0 65535 65535 53984 13 15 24 28 51 0 43 4 21 22 23 10 49 65535 65535 45 16 17 8 12 18 52 17501 29 27 6 7 25 65535 65535 65535 65535 14 11 54 55 56 54108 53981 0 227 49469 0 226 224 53982 0 76 42 40 49469 231 0 40 65535 0 0 0 0 0 0 65535 65535 0 0 0 0 0 0 0 0 0 0 0 0 0 0 65535 65535 0 0 0 0 0 0 0 0 0 0 0 0 0 0 65535 65535 0 0 0 0 0 0 0 0 0 0 0 0 0 65535 65535 65535 65535 0 0 0 0 0 0 0 0 0 0 0 0 0 0 0 0 0 0 0 0 0 0 65535 30 31 32 33 34 0 65535 65535 0 35 36 37 38 39 45 0 20 26 8 21 23 0 65535 65535 0 28 24 12 18 19 46 43 4 22 7 9 10 0 65535 65535 0 11 13 14 15 51 47 17492 29 27 6 25 5 65535 65535 65535 65535 17 16 54 55 56 48 0 0 0 49469 227 226 224 0 0 76 42 40 49469 0 0 0"
    },
    {
      "command": "keymap.onlyCustom",
      "data": "1"
    },
    {
      "command": "settings.defaultLayer",
      "data": "0"
    },
    {
      "command": "superkeys.map",
      "data": "17492 1 1 17492 1 0 1 17451 17452 17493 17453 0 1 17453 17454 1 1 0 2086 1 1 2087 1 0 47 1 1 48 1 0 0 1 1 48 1 0 2095 2095 2096 2096 1 0 1 1 1 1 1 0 1 17451 17452 1 1 0 0 1 1 48 1 0 17152 17154 1 17153 1 0 1 225 1 57 1 0 0 65535 65535 65535 65535 65535 65535 65535 65535 65535 65535 65535 65535 65535 65535 65535 65535 65535 65535 65535 65535 65535 65535 65535 65535 65535 65535 65535 65535 65535 65535 65535 65535 65535 65535 65535 65535 65535 65535 65535 65535 65535 65535 65535 65535 65535 65535 65535 65535 65535 65535 65535 65535 65535 65535 65535 65535 65535 65535 65535 65535 65535 65535 65535 65535 65535 65535 65535 65535 65535 65535 65535 65535 65535 65535 65535 65535 65535 65535 65535 65535 65535 65535 65535 65535 65535 65535 65535 65535 65535 65535 65535 65535 65535 65535 65535 65535 65535 65535 65535 65535 65535 65535 65535 65535 65535 65535 65535 65535 65535 65535 65535 65535 65535 65535 65535 65535 65535 65535 65535 65535 65535 65535 65535 65535 65535 65535 65535 65535 65535 65535 65535 65535 65535 65535 65535 65535 65535 65535 65535 65535 65535 65535 65535 65535 65535 65535 65535 65535 65535 65535 65535 65535 65535 65535 65535 65535 65535 65535 65535 65535 65535 65535 65535 65535 65535 65535 65535 65535 65535 65535 65535 65535 65535 65535 65535 65535 65535 65535 65535 65535 65535 65535 65535 65535 65535 65535 65535 65535 65535 65535 65535 65535 65535 65535 65535 65535 65535 65535 65535 65535 65535 65535 65535 65535 65535 65535 65535 65535 65535 65535 65535 65535 65535 65535 65535 65535 65535 65535 65535 65535 65535 65535 65535 65535 65535 65535 65535 65535 65535 65535 65535 65535 65535 65535 65535 65535 65535 65535 65535 65535 65535 65535 65535 65535 65535 65535 65535 65535 65535 65535 65535 65535 65535 65535 65535 65535 65535 65535 65535 65535 65535 65535 65535 65535 65535 65535 65535 65535 65535 65535 65535 65535 65535 65535 65535 65535 65535 65535 65535 65535 65535 65535 65535 65535 65535 65535 65535 65535 65535 65535 65535 65535 65535 65535 65535 65535 65535 65535 65535 65535 65535 65535 65535 65535 65535 65535 65535 65535 65535 65535 65535 65535 65535 65535 65535 65535 65535 65535 65535 65535 65535 65535 65535 65535 65535 65535 65535 65535 65535 65535 65535 65535 65535 65535 65535 65535 65535 65535 65535 65535 65535 65535 65535 65535 65535 65535 65535 65535 65535 65535 65535 65535 65535 65535 65535 65535 65535 65535 65535 65535 65535 65535 65535 65535 65535 65535 65535 65535 65535 65535 65535 65535 65535 65535 65535 65535 65535 65535 65535 65535 65535 65535 65535 65535 65535 65535 65535 65535 65535 65535 65535 65535 65535 65535 65535 65535 65535 65535 65535 65535 65535 65535 65535 65535 65535 65535 65535 65535 65535 65535 65535 65535 65535 65535 65535 65535 65535 65535 65535 65535 65535 65535 65535 65535 65535 65535 65535 65535 65535 65535 65535 65535 65535 65535 65535 65535 65535 65535 65535"
    },
    {
      "command": "superkeys.waitfor",
      "data": "500"
    },
    {
      "command": "superkeys.timeout",
      "data": "200"
    },
    {
      "command": "superkeys.repeat",
      "data": "20"
    },
    {
      "command": "superkeys.holdstart",
      "data": "120"
    },
    {
      "command": "superkeys.overlap",
      "data": "40"
    },
    {
      "command": "led.brightness",
      "data": "63"
    },
    {
      "command": "led.brightnessUG",
      "data": "63"
    },
    {
      "command": "led.brightness.wireless",
      "data": "255"
    },
    {
      "command": "led.brightnessUG.wireless",
      "data": "127"
    },
    {
      "command": "led.fade",
      "data": "1"
    },
    {
      "command": "palette",
      "data": "0 255 0 0 210 131 0 35 0 0 0 0 255 0 0 0 0 0 0 0 0 0 255 0 0 0 0 0 255 135 0 0 0 0 0 0 0 0 0 255 220 203 0 28 0 0 0 0 255 0 255 0 0 0 0 0 255 202 0 0 0 0 0 0"
    },
    {
      "command": "colormap.map",
      "data": "3 0 15 15 15 15 13 0 0 0 0 0 0 15 0 0 0 0 7 0 0 3 0 0 0 0 0 7 15 0 0 13 0 0 5 15 15 15 15 15 15 0 15 0 0 0 0 0 0 0 0 0 0 7 0 0 7 0 0 0 0 0 0 0 0 0 0 13 0 13 15 15 15 15 15 13 0 0 0 15 15 15 15 15 15 15 15 15 15 15 15 15 15 15 15 15 15 15 15 15 15 15 15 15 15 15 15 15 15 15 15 15 15 15 15 15 15 15 13 13 15 15 15 15 15 15 15 15 13 0 0 0 15 15 15 15 15 15 15 15 15 15 15 15 15 15 15 15 15 15 15 15 15 15 15 15 15 15 15 15 15 15 15 15 15 15 15 15 15 15 15 13 13 15 15 15 0 15 3 7 7 7 7 7 7 15 15 15 15 15 15 15 13 15 15 15 13 15 15 15 15 15 15 15 15 0 15 13 13 13 13 13 13 15 7 7 7 7 7 7 15 14 14 7 7 7 15 15 14 14 7 3 7 15 13 15 14 7 7 7 13 7 7 13 7 13 7 13 15 15 15 15 15 15 7 7 7 15 15 15 15 15 15 15 15 15 15 15 15 15 15 15 15 15 15 15 15 15 15 15 15 15 15 15 15 15 15 15 15 15 15 15 15 15 15 15 15 15 15 15 15 15 15 15 15 15 15 7 7 7 15 15 15 15 15 15 15 15 15 15 15 15 15 15 15 15 15 15 15 15 15 15 15 15 15 15 15 15 15 15 15 15 15 15 15 15 15 15 15 15 15 15 15 15 7 15 3 15 15 15 15 15 13 15 15 15 15 15 15 15 13 15 15 15 13 15 15 15 15 15 15 15 15 0 15 13 13 13 13 13 13 15 15 15 15 15 15 15 15 15 15 10 10 10 15 15 15 15 10 7 10 15 13 15 15 10 10 10 15 10 10 13 10 13 10 13 15 15 15 15 15 15 10 10 10 15 15 15 15 15 15 15 15 15 15 15 15 15 15 15 15 15 15 15 15 15 15 15 15 15 15 15 15 15 15 15 15 15 15 15 15 15 15 15 15 15 15 15 15 15 15 15 15 15 15 10 10 10 15 15 15 15 15 15 15 15 15 15 15 15 15 15 15 15 15 15 15 15 15 15 15 15 15 15 15 15 15 15 15 15 15 15 15 15 15 15 15 15 15 15 15 15 10 15 3 15 15 15 15 15 13 15 15 15 15 15 15 15 13 15 15 15 13 15 15 15 15 15 15 15 15 0 15 13 13 13 13 13 13 15 15 15 0 15 15 15 15 15 0 0 0 15 15 15 15 0 0 0 15 15 13 15 0 0 0 15 13 15 13 0 0 13 13 13 15 15 15 15 15 15 15 15 15 15 15 15 15 15 15 15 15 15 15 15 15 15 15 15 15 15 15 15 15 15 15 15 15 15 15 15 15 15 15 15 15 15 15 15 15 15 15 15 15 15 15 15 15 15 15 15 15 15 15 15 15 15 15 15 15 15 15 15 15 15 15 15 15 15 15 15 15 15 15 15 15 15 15 15 15 15 15 15 15 15 15 15 15 15 15 15 15 15 15 15 15 15 15 15 15 15 15 15 3 15 15 15 15 15 13 15 15 15 15 15 15 15 13 15 15 15 13 15 15 15 15 15 15 15 15 13 15 13 13 13 13 13 13 15 15 15 15 15 15 15 15 15 5 5 5 15 15 15 5 5 5 5 5 15 7 15 5 5 5 15 13 15 13 13 13 13 13 13 15 15 15 15 15 15 5 5 5 15 15 15 15 15 15 15 15 15 15 15 15 15 15 15 15 15 15 15 15 15 15 15 15 15 15 15 15 15 15 15 15 15 15 15 15 15 15 15 15 15 15 15 15 15 15 15 15 15 15 5 5 5 15 15 15 15 15 15 15 15 15 15 15 15 15 15 15 15 15 15 15 15 15 15 15 15 15 15 15 15 15 15 15 15 15 15 15 15 15 15 15 15 15 15 15 15 15 15 3 15 15 15 15 15 13 15 15 15 15 15 15 15 13 15 15 15 13 15 15 15 15 15 15 15 15 13 15 13 13 13 13 13 13 15 15 15 15 15 15 15 15 15 15 15 15 15 15 15 15 15 15 13 15 15 13 15 15 15 15 15 13 15 13 13 13 13 13 13 15 15 15 15 15 15 15 15 15 15 15 15 15 15 15 15 15 15 15 15 15 15 15 15 15 15 15 15 15 15 15 15 15 15 15 15 15 15 15 15 15 15 15 15 15 15 15 15 15 15 15 15 15 15 15 15 15 15 15 15 15 15 15 15 15 15 15 15 15 15 15 15 15 15 15 15 15 15 15 15 15 15 15 15 15 15 15 15 15 15 15 15 15 15 15 15 15 15 15 15 15 15 15 15 15 15 15 15 3 15 15 15 15 15 13 15 0 0 0 0 0 15 13 0 0 0 0 0 15 15 0 0 0 0 0 13 15 13 13 13 13 13 13 15 15 15 15 15 15 15 15 0 0 0 0 0 15 15 0 0 0 0 0 15 13 0 0 0 0 0 13 15 13 13 13 13 13 13 15 15 15 15 15 13 0 0 0 15 15 15 15 15 15 15 15 15 15 15 15 15 15 15 15 15 15 15 15 15 15 15 15 15 15 15 15 15 15 15 15 15 15 15 15 15 15 15 13 13 15 15 15 15 15 15 15 15 13 0 0 0 15 15 15 15 15 15 15 15 15 15 15 15 15 15 15 15 15 15 15 15 15 15 15 15 15 15 15 15 15 15 15 15 15 15 15 15 15 15 15 13 13 15 15 15 0 15 3 0 15 15 15 15 13 0 0 0 0 0 0 15 0 0 0 0 7 0 0 3 0 0 0 0 0 7 15 0 0 0 0 0 5 15 15 15 15 15 15 0 15 0 0 0 0 0 0 0 0 0 0 7 0 0 7 0 0 0 0 0 0 15 0 0 0 0 0 13 15 15 15 15 15 13 0 0 0 15 15 15 15 15 15 15 15 15 15 15 15 15 15 15 15 15 15 15 15 15 15 15 15 15 15 15 15 15 15 15 15 15 15 15 15 15 15 15 13 13 15 15 15 15 15 15 15 15 13 0 0 0 15 15 15 15 15 15 15 15 15 15 15 15 15 15 15 15 15 15 15 15 15 15 15 15 15 15 15 15 15 15 15 15 15 15 15 15 15 15 15 13 13 15 15 15 0 15 3 15 15 15 15 15 13 15 15 15 15 15 15 15 13 15 15 15 13 15 15 15 15 15 15 15 15 13 15 13 13 13 13 13 13 15 15 15 15 15 15 15 15 15 15 15 15 15 15 15 15 15 15 13 15 15 13 15 15 15 15 15 13 15 13 13 13 13 13 13 15 15 15 15 15 15 15 15 15 15 15 15 15 15 15 15 15 15 15 15 15 15 15 15 15 15 15 15 15 15 15 15 15 15 15 15 15 15 15 15 15 15 15 15 15 15 15 15 15 15 15 15 15 15 15 15 15 15 15 15 15 15 15 15 15 15 15 15 15 15 15 15 15 15 15 15 15 15 15 15 15 15 15 15 15 15 15 15 15 15 15 15 15 15 15 15 15 15 15 15 15 15 15 15 15 15 15 15 3 10 10 10 10 10 10 10 10 10 10 10 10 10 10 10 10 10 10 10 10 3 10 10 10 10 10 10 10 10 10 10 10 10 10 10 10 10 10 10 10 10 10 10 10 10 10 10 10 10 10 10 10 10 10 10 10 10 10 10 10 10 10 10 10 10 10 10 10 10 10 10 10 10 10 10 10 10 10 10 10 10 10 10 10 10 10 10 10 10 10 10 10 10 10 10 10 10 10 10 10 10 10 10 10 10 10 10 10 10 10 10 10 10 10 10 10 10 10 10 10 10 10 10 10 10 10 10 10 10 10 10 10 10 10 10 10 10 10 10 10 10 10 10 10 10 10 10 10 10 10 10 10 10 10 10 10 10 10 10 10 10 10 10 10 10 10 10 10 10 10 10 10 10 10 10 10 15"
    },
    {
      "command": "idleleds.true_sleep",
      "data": "1"
    },
    {
      "command": "idleleds.true_sleep_time",
      "data": "3600"
    },
    {
      "command": "idleleds.time_limit",
      "data": "600"
    },
    {
      "command": "idleleds.wireless",
      "data": "1200"
    },
    {
      "command": "macros.map",
      "data": "6 227 8 44 7 227 0 6 227 6 226 8 30 0 6 227 6 226 8 31 0 6 227 6 226 8 32 0 0 255 255 255 255 255 255 255 255 255 255 255 255 255 255 255 255 255 255 255 255 255 255 255 255 255 255 255 255 255 255 255 255 255 255 255 255 255 255 255 255 255 255 255 255 255 255 255 255 255 255 255 255 255 255 255 255 255 255 255 255 255 255 255 255 255 255 255 255 255 255 255 255 255 255 255 255 255 255 255 255 255 255 255 255 255 255 255 255 255 255 255 255 255 255 255 255 255 255 255 255 255 255 255 255 255 255 255 255 255 255 255 255 255 255 255 255 255 255 255 255 255 255 255 255 255 255 255 255 255 255 255 255 255 255 255 255 255 255 255 255 255 255 255 255 255 255 255 255 255 255 255 255 255 255 255 255 255 255 255 255 255 255 255 255 255 255 255 255 255 255 255 255 255 255 255 255 255 255 255 255 255 255 255 255 255 255 255 255 255 255 255 255 255 255 255 255 255 255 255 255 255 255 255 255 255 255 255 255 255 255 255 255 255 255 255 255 255 255 255 255 255 255 255 255 255 255 255 255 255 255 255 255 255 255 255 255 255 255 255 255 255 255 255 255 255 255 255 255 255 255 255 255 255 255 255 255 255 255 255 255 255 255 255 255 255 255 255 255 255 255 255 255 255 255 255 255 255 255 255 255 255 255 255 255 255 255 255 255 255 255 255 255 255 255 255 255 255 255 255 255 255 255 255 255 255 255 255 255 255 255 255 255 255 255 255 255 255 255 255 255 255 255 255 255 255 255 255 255 255 255 255 255 255 255 255 255 255 255 255 255 255 255 255 255 255 255 255 255 255 255 255 255 255 255 255 255 255 255 255 255 255 255 255 255 255 255 255 255 255 255 255 255 255 255 255 255 255 255 255 255 255 255 255 255 255 255 255 255 255 255 255 255 255 255 255 255 255 255 255 255 255 255 255 255 255 255 255 255 255 255 255 255 255 255 255 255 255 255 255 255 255 255 255 255 255 255 255 255 255 255 255 255 255 255 255 255 255 255 255 255 255 255 255 255 255 255 255 255 255 255 255 255 255 255 255 255 255 255 255 255 255 255 255 255 255 255 255 255 255 255 255 255 255 255 255 255 255 255 255 255 255 255 255 255 255 255 255 255 255 255 255 255 255 255 255 255 255 255 255 255 255 255 255 255 255 255 255 255 255 255 255 255 255 255 255 255 255 255 255 255 255 255 255 255 255 255 255 255 255 255 255 255 255 255 255 255 255 255 255 255 255 255 255 255 255 255 255 255 255 255 255 255 255 255 255 255 255 255 255 255 255 255 255 255 255 255 255 255 255 255 255 255 255 255 255 255 255 255 255 255 255 255 255 255 255 255 255 255 255 255 255 255 255 255 255 255 255 255 255 255 255 255 255 255 255 255 255 255 255 255 255 255 255 255 255 255 255 255 255 255 255 255 255 255 255 255 255 255 255 255 255 255 255 255 255 255 255 255 255 255 255 255 255 255 255 255 255 255 255 255 255 255 255 255 255 255 255 255 255 255 255 255 255 255 255 255 255 255 255 255 255 255 255 255 255 255 255 255 255 255 255 255 255 255 255 255 255 255 255 255 255 255 255 255 255 255 255 255 255 255 255 255 255 255 255 255 255 255 255 255 255 255 255 255 255 255 255 255 255 255 255 255 255 255 255 255 255 255 255 255 255 255 255 255 255 255 255 255 255 255 255 255 255 255 255 255 255 255 255 255 255 255 255 255 255 255 255 255 255 255 255 255 255 255 255 255 255 255 255 255 255 255 255 255 255 255 255 255 255 255 255 255 255 255 255 255 255 255 255 255 255 255 255 255 255 255 255 255 255 255 255 255 255 255 255 255 255 255 255 255 255 255 255 255 255 255 255 255 255 255 255 255 255 255 255 255 255 255 255 255 255 255 255 255 255 255 255 255 255 255 255 255 255 255 255 255 255 255 255 255 255 255 255 255 255 255 255 255 255 255 255 255 255 255 255 255 255 255 255 255 255 255 255 255 255 255 255 255 255 255 255 255 255 255 255 255 255 255 255 255 255 255 255 255 255 255 255 255 255 255 255 255 255 255 255 255 255 255 255 255 255 255 255 255 255 255 255 255 255 255 255 255 255 255 255 255 255 255 255 255 255 255 255 255 255 255 255 255 255 255 255 255 255 255 255 255 255 255 255 255 255 255 255 255 255 255 255 255 255 255 255 255 255 255 255 255 255 255 255 255 255 255 255 255 255 255 255 255 255 255 255 255 255 255 255 255 255 255 255 255 255 255 255 255 255 255 255 255 255 255 255 255 255 255 255 255 255 255 255 255 255 255 255 255 255 255 255 255 255 255 255 255 255 255 255 255 255 255 255 255 255 255 255 255 255 255 255 255 255 255 255 255 255 255 255 255 255 255 255 255 255 255 255 255 255 255 255 255 255 255 255 255 255 255 255 255 255 255 255 255 255 255 255 255 255 255 255 255 255 255 255 255 255 255 255 255 255 255 255 255 255 255 255 255 255 255 255 255 255 255 255 255 255 255 255 255 255 255 255 255 255 255 255 255 255 255 255 255 255 255 255 255 255 255 255 255 255 255 255 255 255 255 255 255 255 255 255 255 255 255 255 255 255 255 255 255 255 255 255 255 255 255 255 255 255 255 255 255 255 255 255 255 255 255 255 255 255 255 255 255 255 255 255 255 255 255 255 255 255 255 255 255 255 255 255 255 255 255 255 255 255 255 255 255 255 255 255 255 255 255 255 255 255 255 255 255 255 255 255 255 255 255 255 255 255 255 255 255 255 255 255 255 255 255 255 255 255 255 255 255 255 255 255 255 255 255 255 255 255 255 255 255 255 255 255 255 255 255 255 255 255 255 255 255 255 255 255 255 255 255 255 255 255 255 255 255 255 255 255 255 255 255 255 255 255 255 255 255 255 255 255 255 255 255 255 255 255 255 255 255 255 255 255 255 255 255 255 255 255 255 255 255 255 255 255 255 255 255 255 255 255 255 255 255 255 255 255 255 255 255 255 255 255 255 255 255 255 255 255 255 255 255 255 255 255 255 255 255 255 255 255 255 255 255 255 255 255 255 255 255 255 255 255 255 255 255 255 255 255 255 255 255 255 255 255 255 255 255 255 255 255 255 255 255 255 255 255 255 255 255 255 255 255 255 255 255 255 255 255 255 255 255 255 255 255 255 255 255 255 255 255 255 255 255 255 255 255 255 255 255 255 255 255 255 255 255 255 255 255 255 255 255 255 255 255 255 255 255 255 255 255 255 255 255 255 255 255 255 255 255 255 255 255 255 255 255 255 255 255 255 255 255 255 255 255 255 255 255 255 255 255 255 255 255 255 255 255 255 255 255 255 255 255 255 255 255 255 255 255 255 255 255 255 255 255 255 255 255 255 255 255 255 255 255 255 255 255 255 255 255 255 255 255 255 255 255 255 255 255 255 255 255 255 255 255 255 255 255 255 255 255 255 255 255 255 255 255 255 255 255 255 255 255 255 255 255 255 255 255 255 255 255 255 255 255 255 255 255 255 255 255 255 255 255 255 255 255 255 255 255 255 255 255 255 255 255 255 255 255 255 255 255 255 255 255 255 255 255 255 255 255 255 255 255 255 255 255 255 255 255 255 255 255 255 255 255 255 255 255 255 255 255 255 255 255 255 255 255 255 255 255 255 255 255 255 255 255 255 255 255 255 255 255 255 255 255 255 255 255 255 255 255 255 255 255 255 255 255 255 255 255 255 255 255 255 255 255 255 255 255 255 255 255 255 255 255 255 255 255 255 255 255 255 255 255 255 255 255 255 255 255 255 255 255 255 255 255 255 255 255 255 255 255 255 255 255 255 255 255 255 255 255 255 255 255 255 255 255 255 255 255 255 255 255 255 255 255 255 255 255 255 255 255 255 255 255 255 255 255 255 255 255 255 255 255 255 255 255 255 255 255 255 255 255 255 255 255 255 255 255 255 255 255 255 255 255 255 255 255 255 255 255 255 255 255 255 255 255 255 255 255 255 255 255 255 255 255 255 255 255 255 255 255 255 255 255 255 255 255 255 255 255 255 255 255 255 255 255 255 255 255 255 255 255 255 255 255 255 255 255 255 255 255 255 255 255 255 255 255 255 255 255 255 255 255 255 255 255 255 255 255 255 255 255 255 255 255 255 255 255 255 255 255 255 255 255 255 255 255 255 255 255 255 255 255 255 255 255 255 255 255 255 255 255 255 255 255 255 255 255 255 255 255 255 255 255 255 255 255 255 255 255 255 255 255 255 255 255 255 255 255 255 255 255 255 255 255 255 255 255 255 255 255 255 255 255 255 255 255 255 255 255 255 255 255 255 255 255 255 255 255 255 255 255 255 255 255 255 255 255 255 255 255 255 255 255 255 255 255 255 255 255 255 255 255 255 255 255 255 255 255 255 255 255 255 255 255 255 255 255 255 255 255 255 255 255 255 255 255 255 255 255 255 255 255 255 255 255 255 255 255 255 255 255 255 255 255 255 255 255 255 255 255 255 255 255 255 255 255 255 255 255 255 255 255 255 255 255 255 255 255 255 255 255 255 255 255 255 255 255 255 255 255 255 255 255 255 255 255"
    },
    {
      "command": "macros.memory",
      "data": "2048"
    },
    {
      "command": "mouse.speed",
      "data": "1"
    },
    {
      "command": "mouse.speedDelay",
      "data": "2"
    },
    {
      "command": "mouse.accelSpeed",
      "data": "1"
    },
    {
      "command": "mouse.accelDelay",
      "data": "2"
    },
    {
      "command": "mouse.wheelSpeed",
      "data": "1"
    },
    {
      "command": "mouse.wheelDelay",
      "data": "100"
    },
    {
      "command": "mouse.speedLimit",
      "data": "127"
    },
    {
      "command": "wireless.battery.left.level",
      "data": "56"
    },
    {
      "command": "wireless.battery.right.level",
      "data": "40"
    },
    {
      "command": "wireless.battery.left.status",
      "data": "0"
    },
    {
      "command": "wireless.battery.right.status",
      "data": "0"
    },
    {
      "command": "wireless.battery.savingMode",
      "data": "0"
    },
    {
      "command": "wireless.rf.power",
      "data": "0"
    },
    {
      "command": "wireless.rf.channelHop",
      "data": "0"
    },
    {
      "command": "wireless.rf.syncPairing",
      "data": ""
    }
  ]
}